…
## Q4: For each year and state, compute the average proportion in each response category (taking the average across locations in a state).

``` r
brfss_avg = brfss %>%
  spread(key = "Overall Health Response", value = "Overall Health Value") %>% 
  group_by(year, state) %>%
  summarize(mean_excellent = mean(Excellent), 
            mean_vgood = mean(`Very good`),
            mean_good = mean(Good),
            mean_fair = mean(Fair),
            mean_poor = mean(Poor))
brfss_avg
```

    ## # A tibble: 443 x 7
    ## # Groups:   year [?]
    ##     year state mean_excellent mean_vgood mean_good mean_fair mean_poor
    ##    <int> <chr>          <dbl>      <dbl>     <dbl>     <dbl>     <dbl>
    ##  1  2002 AK              27.9       33.7      23.8      8.6       5.9 
    ##  2  2002 AL              18.5       30.9      32.7     12.1       5.9 
    ##  3  2002 AR              24.1       29.3      29.9     12.5       4.2 
    ##  4  2002 AZ              24.1       33.4      29.4      8.9       4.25
    ##  5  2002 CA              22.7       29.8      28.7     14.3       4.5 
    ##  6  2002 CO              23.1       32.5      30.3     11.2       2.92
    ##  7  2002 CT              29.1       33.8      25.0      8.73      3.43
    ##  8  2002 DC              29.3       31.8      28.1      8.3       2.4 
    ##  9  2002 DE              20.9       34.2      29.8     11.1       4   
    ## 10  2002 FL              25.7       31.1      28.9      9.67      4.53
    ## # ... with 433 more rows
…
## Q1: How many aisles are there, and which aisles are the most items ordered from?

``` r
instacart %>%
    group_by(aisle_id) %>%
    summarise(n = n())
```

    ## # A tibble: 134 x 2
    ##    aisle_id     n
    ##       <int> <int>
    ##  1        1  2936
    ##  2        2  3873
    ##  3        3 17449
    ##  4        4  9917
    ##  5        5  2905
    ##  6        6  1795
    ##  7        7  1526
    ##  8        8  1501
    ##  9        9  9736
    ## 10       10   448
    ## # ... with 124 more rows
…
## Q3: Make a table showing the most popular item in aisles “baking ingredients”, in “dog food care”, and in “packaged vegetables fruits”

``` r
cart_bake_dog_vegf = instacart %>%
  filter(aisle == 'baking ingredients' | aisle == 'dog food care' | aisle == 'packaged vegetables fruits') %>%
  select(product_name, aisle) %>% 
  group_by(aisle, product_name) %>%
  summarise(n = n()) %>%
  arrange(desc(n)) #to sort from highest to lowest the #(n) of each product within aisles
cart_bake_dog_vegf
```

    ## # A tibble: 1,444 x 3
    ## # Groups:   aisle [3]
    ##    aisle                      product_name                          n
    ##    <chr>                      <chr>                             <int>
    ##  1 packaged vegetables fruits Organic Baby Spinach               9784
    ##  2 packaged vegetables fruits Organic Raspberries                5546
    ##  3 packaged vegetables fruits Organic Blueberries                4966
    ##  4 packaged vegetables fruits Seedless Red Grapes                4059
    ##  5 packaged vegetables fruits Organic Grape Tomatoes             3823
    ##  6 packaged vegetables fruits Organic Baby Carrots               3597
    ##  7 packaged vegetables fruits Organic Baby Arugula               2923
    ##  8 packaged vegetables fruits Organic Peeled Whole Baby Carrots  2460
    ##  9 packaged vegetables fruits Red Raspberries                    1493
    ## 10 packaged vegetables fruits Clementines, Bag                   1478
    ## # ... with 1,434 more rows
…
